{
   "pay_ratios_2015_16":[
      {
         "name":"Birkbeck",
         "max":350064,
         "min":19316,
         "median":41772,
         "apprentice":12073,
         "rank":1
      },
      {
         "name":"Brunel",
         "max":295000,
         "min":8676,
         "median":36875,
         "apprentice":8676,
         "rank":2

      },
      {
         "name":"City",
         "max":308000,
         "min":18780,
         "median":47385,
         "apprentice":16718,
         "rank":3

      },
      {
         "name":"Imperial",
         "max":448000,
         "min":18667,
         "median":37333,
         "apprentice":[
            15590,
            18920
         ],
         "rank":5

      },
      {
         "name":"LBS",
         "max":414213,
         "min":19724,
         "median":37656,
         "rank":6

      },
      {
         "name":"King's",
         "max":419000,
         "min":17979,
         "median":"N/A",
         "apprentice":17979,
         "rank":7

      },
      {
         "name":"SOAS",
         "max":230240,
         "min":19516,
         "median":40302,
         "rank":8

      },
      {
         "name":"St George's",
         "max":232620,
         "min":18033,
         "median":40107,
         "rank":9

      },
      {
         "name":"Greenwich",
         "max":267432,
         "min":16289,
         "median":52793
      },
      {
         "name":"Westminster",
         "max":293929,
         "min":19595,
         "median":43870,
         "apprentice":19595,
         "rank":4

      }
   ],
   "pay_ratios_2012_13":[
      {
         "name":"Birkbeck",
         "max":316741,
         "min":17597,
         "median":39593,
         "rank":4
      },
      {
         "name":"Brunel",
         "max":225000,
         "min":10499,
         "median":36645
      },
      {
         "name":"City",
         "max":303000,
         "min":17824,
         "median":43286
      },
      {
         "name":"Imperial",
         "max":416250,
         "min":14813,
         "median":39269,
         "rank":3

      },
      {
         "name":"King's",
         "max":276000,
         "min":14526,
         "median":39429,
         "rank":6

      },
      {
         "name":"LBS",
         "max":495204,
         "min":15974,
         "median":49520,
         "rank":5

      },
      {
         "name":"RHUL",
         "max":259000,
         "min":14389,
         "median":28778
      },
      {
         "name":"SOAS",
         "max":220911,
         "min":16799,
         "median":27893,
         "rank":2

      },
      {
         "name":"St George's",
         "max":233215,
         "min":16309,
         "median":"N/A",
         "rank":1

      },
      {
         "name":"East London",
         "max":266000,
         "min":15647,
         "median":53200
      },
      {
         "name":"Greenwich",
         "max":258456,
         "min":18074,
         "median":52213
      },
      {
         "name":"Westminster",
         "max":270000,
         "min":22500,
         "median":45000
      },
      {
         "name":"London Met",
         "max":220000,
         "min":16016,
         "median":"N/A"
      },
      {
         "name":"London South Bank",
         "max":233000,
         "min":16016,
         "median":"N/A"
      },
      {
         "name":"LSHTM",
         "max":227260,
         "min":17309,
         "median":"N/A"
      }
   ]
}